{
  "Title": "Titanic",
  "Year": "1997",
  "Rated": "PG-13",
  "Released": "19 Dec 1997",
  "Runtime": "194 min",
  "Genre": "Drama, Romance",
  "Director": "James Cameron",
  "Writer": "James Cameron",
  "Actors": "Leonardo DiCaprio, Kate Winslet, Billy Zane, Kathy Bates",
  "Plot":
    "84 years later, a 100 year-old woman named Rose DeWitt Bukater tells the story to her granddaughter Lizzy Calvert, Brock Lovett, Lewis Bodine, Bobby Buell and Anatoly Mikailavich on the Keldysh about her life set in April 10th 1912, on a ship called Titanic when young Rose boards the departing ship with the upper-class passengers and her mother, Ruth DeWitt Bukater, and her fiancé, Caledon Hockley. Meanwhile, a drifter and artist named Jack Dawson and his best friend Fabrizio De Rossi win third-class tickets to the ship in a game. And she explains the whole story from departure until the death of Titanic on its first and last voyage April 15th, 1912 at 2:20 in the morning.",
  "Language": "English, Swedish",
  "Country": "USA",
  "Awards": "Won 11 Oscars. Another 110 wins & 75 nominations.",
  "Poster":
    "https://images-na.ssl-images-amazon.com/images/M/MV5BMDdmZGU3NDQtY2E5My00ZTliLWIzOTUtMTY4ZGI1YjdiNjk3XkEyXkFqcGdeQXVyNTA4NzY1MzY@._V1_SX300.jpg",
  "Ratings": [
    { "Source": "Internet Movie Database", "Value": "7.8/10" },
    { "Source": "Rotten Tomatoes", "Value": "88%" },
    { "Source": "Metacritic", "Value": "74/100" }
  ],
  "Metascore": "74",
  "imdbRating": "7.8",
  "imdbVotes": "869,216",
  "imdbID": "tt0120338",
  "Type": "movie",
  "DVD": "10 Sep 2012",
  "BoxOffice": "N/A",
  "Production": "Paramount Pictures",
  "Website": "http://www.titanicmovie.com/",
  "Response": "True"
}
